2023-08-28 05:05:21,470 INFO o.a.j.u.JMeterUtils: Setting Locale to en_EN
2023-08-28 05:05:21,552 INFO o.a.j.JMeter: Loading user properties from: user.properties
2023-08-28 05:05:21,553 INFO o.a.j.JMeter: Loading system properties from: system.properties
2023-08-28 05:05:21,576 INFO o.a.j.JMeter: Copyright (c) 1998-2023 The Apache Software Foundation
2023-08-28 05:05:21,576 INFO o.a.j.JMeter: Version 5.6.2
2023-08-28 05:05:21,577 INFO o.a.j.JMeter: java.version=11.0.17
2023-08-28 05:05:21,577 INFO o.a.j.JMeter: java.vm.name=OpenJDK 64-Bit Server VM
2023-08-28 05:05:21,577 INFO o.a.j.JMeter: os.name=Linux
2023-08-28 05:05:21,578 INFO o.a.j.JMeter: os.arch=amd64
2023-08-28 05:05:21,578 INFO o.a.j.JMeter: os.version=5.15.0-1028-aws
2023-08-28 05:05:21,578 INFO o.a.j.JMeter: file.encoding=UTF-8
2023-08-28 05:05:21,578 INFO o.a.j.JMeter: java.awt.headless=null
2023-08-28 05:05:21,578 INFO o.a.j.JMeter: Max memory     =1073741824
2023-08-28 05:05:21,579 INFO o.a.j.JMeter: Available Processors =2
2023-08-28 05:05:21,614 INFO o.a.j.JMeter: Default Locale=English (EN)
2023-08-28 05:05:21,615 INFO o.a.j.JMeter: JMeter  Locale=English (EN)
2023-08-28 05:05:21,615 INFO o.a.j.JMeter: JMeterHome=/home/ubuntu/Downloads/apache-jmeter-5.6.2
2023-08-28 05:05:21,615 INFO o.a.j.JMeter: user.dir  =/home/ubuntu/Downloads/apache-jmeter-5.6.2/bin
2023-08-28 05:05:21,616 INFO o.a.j.JMeter: PWD       =/home/ubuntu/Downloads/apache-jmeter-5.6.2/bin
2023-08-28 05:05:21,619 INFO o.a.j.JMeter: IP: 172.31.37.116 Name: ip-172-31-37-116 FullName: ip-172-31-37-116.ap-south-1.compute.internal
2023-08-28 05:05:21,640 INFO o.a.j.JMeter: Loaded icon properties from org/apache/jmeter/images/icon.properties
2023-08-28 05:05:24,050 INFO o.a.j.JMeterGuiLauncher: Setting LAF to: com.github.weisj.darklaf.DarkLaf:com.github.weisj.darklaf.theme.DarculaTheme
2023-08-28 05:06:01,440 INFO o.a.j.p.h.s.HTTPSamplerBase: Parser for text/html is org.apache.jmeter.protocol.http.parser.LagartoBasedHtmlParser
2023-08-28 05:06:01,441 INFO o.a.j.p.h.s.HTTPSamplerBase: Parser for application/xhtml+xml is org.apache.jmeter.protocol.http.parser.LagartoBasedHtmlParser
2023-08-28 05:06:01,441 INFO o.a.j.p.h.s.HTTPSamplerBase: Parser for application/xml is org.apache.jmeter.protocol.http.parser.LagartoBasedHtmlParser
2023-08-28 05:06:01,441 INFO o.a.j.p.h.s.HTTPSamplerBase: Parser for text/xml is org.apache.jmeter.protocol.http.parser.LagartoBasedHtmlParser
2023-08-28 05:06:01,441 INFO o.a.j.p.h.s.HTTPSamplerBase: Parser for text/vnd.wap.wml is org.apache.jmeter.protocol.http.parser.RegexpHTMLParser
2023-08-28 05:06:01,441 INFO o.a.j.p.h.s.HTTPSamplerBase: Parser for text/css is org.apache.jmeter.protocol.http.parser.CssParser
2023-08-28 05:06:15,159 INFO o.a.j.s.SampleResult: Note: Sample TimeStamps are START times
2023-08-28 05:06:15,160 INFO o.a.j.s.SampleResult: sampleresult.default.encoding is set to UTF-8
2023-08-28 05:06:15,160 INFO o.a.j.s.SampleResult: sampleresult.useNanoTime=true
2023-08-28 05:06:15,160 INFO o.a.j.s.SampleResult: sampleresult.nanoThreadSleep=5000
2023-08-28 05:15:05,935 INFO o.a.j.s.FileServer: Default base='/home/ubuntu/Downloads/apache-jmeter-5.6.2/bin'
2023-08-28 05:15:05,957 INFO o.a.j.s.FileServer: Set new base='/home/ubuntu/Downloads/apache-jmeter-5.6.2/bin'
2023-08-28 05:15:06,511 INFO o.a.j.s.SaveService: Testplan (JMX) version: 2.2. Testlog (JTL) version: 2.2
2023-08-28 05:15:06,543 INFO o.a.j.s.SaveService: Using SaveService properties version 5.0
2023-08-28 05:15:06,545 INFO o.a.j.s.SaveService: Using SaveService properties file encoding UTF-8
2023-08-28 05:15:06,652 INFO o.a.j.e.StandardJMeterEngine: Running the test!
2023-08-28 05:15:06,654 INFO o.a.j.s.SampleEvent: List of sample_variables: []
2023-08-28 05:15:06,654 INFO o.a.j.s.SampleEvent: List of sample_variables: []
2023-08-28 05:15:06,656 INFO o.a.j.e.u.CompoundVariable: Note: Function class names must contain the string: '.functions.'
2023-08-28 05:15:06,656 INFO o.a.j.e.u.CompoundVariable: Note: Function class names must not contain the string: '.gui.'
2023-08-28 05:15:07,623 INFO o.a.j.g.u.JMeterMenuBar: setRunning(true, *local*)
2023-08-28 05:15:07,781 INFO o.a.j.e.StandardJMeterEngine: Starting ThreadGroup: 1 : Thread Group
2023-08-28 05:15:07,781 INFO o.a.j.e.StandardJMeterEngine: Starting 1 threads for group Thread Group.
2023-08-28 05:15:07,781 INFO o.a.j.e.StandardJMeterEngine: Thread will continue on error
2023-08-28 05:15:07,782 INFO o.a.j.t.ThreadGroup: Starting thread group... number=1 threads=1 ramp-up=1 delayedStart=false
2023-08-28 05:15:07,789 INFO o.a.j.t.ThreadGroup: Started thread group number 1
2023-08-28 05:15:07,789 INFO o.a.j.e.StandardJMeterEngine: All thread groups have been started
2023-08-28 05:15:07,795 INFO o.a.j.t.JMeterThread: Thread started: Thread Group 1-1
2023-08-28 05:15:07,845 INFO o.a.j.p.h.s.HTTPHCAbstractImpl: Local host = ip-172-31-37-116
2023-08-28 05:15:07,863 INFO o.a.j.p.h.s.HTTPHC4Impl: HTTP request retry count = 0
2023-08-28 05:15:08,041 INFO o.a.j.p.h.s.h.LazyLayeredConnectionSocketFactory: Setting up HTTPS TrustAll Socket Factory
2023-08-28 05:15:08,047 INFO o.a.j.u.JsseSSLManager: Using default SSL protocol: TLS
2023-08-28 05:15:08,048 INFO o.a.j.u.JsseSSLManager: SSL session context: per-thread
2023-08-28 05:15:08,232 INFO o.a.j.u.SSLManager: JmeterKeyStore Location:  type JKS
2023-08-28 05:15:08,243 INFO o.a.j.u.SSLManager: KeyStore created OK
2023-08-28 05:15:08,243 WARN o.a.j.u.SSLManager: Keystore file not found, loading empty keystore
2023-08-28 05:15:09,184 INFO o.a.j.t.JMeterThread: Thread is done: Thread Group 1-1
2023-08-28 05:15:09,185 INFO o.a.j.t.JMeterThread: Thread finished: Thread Group 1-1
2023-08-28 05:15:09,189 INFO o.a.j.e.StandardJMeterEngine: Notifying test listeners of end of test
2023-08-28 05:15:09,189 INFO o.a.j.g.u.JMeterMenuBar: setRunning(false, *local*)
2023-08-28 05:16:20,612 INFO o.a.j.e.StandardJMeterEngine: Running the test!
2023-08-28 05:16:20,618 INFO o.a.j.s.SampleEvent: List of sample_variables: []
2023-08-28 05:16:20,621 INFO o.a.j.g.u.JMeterMenuBar: setRunning(true, *local*)
2023-08-28 05:16:20,764 INFO o.a.j.e.StandardJMeterEngine: Starting ThreadGroup: 1 : Thread Group
2023-08-28 05:16:20,765 INFO o.a.j.e.StandardJMeterEngine: Starting 1 threads for group Thread Group.
2023-08-28 05:16:20,765 INFO o.a.j.e.StandardJMeterEngine: Thread will continue on error
2023-08-28 05:16:20,765 INFO o.a.j.t.ThreadGroup: Starting thread group... number=1 threads=1 ramp-up=1 delayedStart=false
2023-08-28 05:16:20,771 INFO o.a.j.t.ThreadGroup: Started thread group number 1
2023-08-28 05:16:20,771 INFO o.a.j.e.StandardJMeterEngine: All thread groups have been started
2023-08-28 05:16:20,773 INFO o.a.j.t.JMeterThread: Thread started: Thread Group 1-1
2023-08-28 05:16:20,947 INFO o.a.j.t.JMeterThread: Thread is done: Thread Group 1-1
2023-08-28 05:16:20,947 INFO o.a.j.t.JMeterThread: Thread finished: Thread Group 1-1
2023-08-28 05:16:20,949 INFO o.a.j.e.StandardJMeterEngine: Notifying test listeners of end of test
2023-08-28 05:16:20,950 INFO o.a.j.g.u.JMeterMenuBar: setRunning(false, *local*)
2023-08-28 05:20:13,974 INFO o.a.j.e.StandardJMeterEngine: Running the test!
2023-08-28 05:20:13,975 INFO o.a.j.s.SampleEvent: List of sample_variables: []
2023-08-28 05:20:13,982 INFO o.a.j.g.u.JMeterMenuBar: setRunning(true, *local*)
2023-08-28 05:20:14,105 INFO o.a.j.e.StandardJMeterEngine: Starting ThreadGroup: 1 : Thread Group
2023-08-28 05:20:14,106 INFO o.a.j.e.StandardJMeterEngine: Starting 1 threads for group Thread Group.
2023-08-28 05:20:14,106 INFO o.a.j.e.StandardJMeterEngine: Thread will continue on error
2023-08-28 05:20:14,106 INFO o.a.j.t.ThreadGroup: Starting thread group... number=1 threads=1 ramp-up=1 delayedStart=false
2023-08-28 05:20:14,112 INFO o.a.j.t.ThreadGroup: Started thread group number 1
2023-08-28 05:20:14,113 INFO o.a.j.e.StandardJMeterEngine: All thread groups have been started
2023-08-28 05:20:14,114 INFO o.a.j.t.JMeterThread: Thread started: Thread Group 1-1
2023-08-28 05:20:14,292 INFO o.a.j.t.JMeterThread: Thread is done: Thread Group 1-1
2023-08-28 05:20:14,293 INFO o.a.j.t.JMeterThread: Thread finished: Thread Group 1-1
2023-08-28 05:20:14,294 INFO o.a.j.e.StandardJMeterEngine: Notifying test listeners of end of test
2023-08-28 05:20:14,294 INFO o.a.j.g.u.JMeterMenuBar: setRunning(false, *local*)
